output.vcd
$timescale 10ns $end
$scope module logic $end
$var wire 1 ! D1 $end
$var wire 1 " D2 $end
$var wire 1 # D3 $end
$var wire 1 $ CSYNC $end
$var wire 1 % S1 $end
$var wire 1 & S2 $end
$var wire 1 ' S3 $end
$var wire 1 ( S4 $end
$var wire 1 ) S5 $end
$var wire 1 * DCLK $end
$var wire 1 + F3 $end
$var wire 1 , F5 $end
$upscope $end
$enddefinitions $end
$dumpvars
x!
x"
x#
x$
x%
x&
x'
x(
x)
x*
x+
x,
$end
#79681
0!
0"
0#
0$
0%
0&
0'
0(
#86543
0)
0*
0+
0,
#2376518
1$
#2384656
1!
#2385300
1"
#2385975
1#
#2391087
1*
#2399606
1%
#2405975
0"
#2407512
0$
#2411756
0*
#2420256
0%
#2426600
1"
#2427281
0#
#2432375
1*
#2440081
1&
#2447362
0!
#2448000
0"
#2448662
1#
#2453781
0*
#2460718
0&
#2468612
1"
#2474393
1*
#2485737
1'
#2489262
0"
#2489931
0#
#2495031
0*
#2497137
1+
#2506362
0'
#2509875
1"
#2515650
1*
#2523362
1(
#2529881
1!
#2531200
1#
#2537075
0*
#2544793
0(
#2551300
0!
#2551937
0"
#2552606
0#
#2559812
0+
#2577312
1)
#2591818
1,
#2597937
0)
#2654418
0,
#2739668
1$
#2748562
1!
#2749206
1"
#2749881
1#
#2754993
1*
#2763512
1%
#2769881
0"
#2770550
0#
#2771412
0$
#2775656
0*
#2784150
0%
#2789856
0!
#2790487
1"
#2791162
1#
#2796268
1*
#2803218
1&
#2811812
0#
#2816918
0*
#2823856
0&
#2837525
1*
#2849618
1'
#2853143
0"
#2853806
1#
#2858918
0*
#2861025
1+
#2870256
0'
#2873131
1!
#2873775
1"
#2874456
0#
#2879550
1*
#2887268
1(
#2895106
1#
#2900225
0*
#2907943
0(
#2914450
0!
#2915087
0"
#2915756
0#
#2922962
0+
#2940462
1)
#2955725
1,
#2961843
0)
#3017568
0,
#3103575
1$
#3111712
1!
#3112356
1"
#3113031
1#
#3118143
1*
#3126662
1%
#3133031
0"
#3134568
0$
#3138812
0*
#3147312
0%
#3160187
1*
#3167137
1&
#3174418
0!
#3180837
0*
#3187775
0&
#3195668
1"
#3201450
1*
#3212793
1'
#3215675
1!
#3216325
0"
#3216993
0#
#3222093
0*
#3224200
1+
#3233431
0'
#3236312
0!
#3236943
1"
#3242718
1*
#3250431
1(
#3257706
1!
#3259025
1#
#3264143
0*
#3271862
0(
#3278368
0!
#3279006
0"
#3279675
0#
#3286881
0+
#3304381
1)
#3318887
1,
#3325006
0)
#3381487
0,
#3467493
1$
#3475631
1!
#3476275
1"
#3476950
1#
#3482062
1*
#3490581
1%
#3496950
0"
#3498487
0$
#3502731
0*
#3511231
0%
#3517575
1"
#3523356
1*
#3530312
1&
#3537593
0!
#3538231
0"
#3538900
0#
#3544006
0*
#3550937
0&
#3558831
1"
#3559506
1#
#3565368
1*
#3576712
1'
#3580237
0"
#3580906
0#
#3586006
0*
#3588112
1+
#3597337
0'
#3600850
1"
#3606625
1*
#3614337
1(
#3620856
1!
#3622175
1#
#3627293
0*
#3635012
0(
#3641518
0!
#3642156
0"
#3642825
0#
#3650031
0+
#3668287
1)
#3682793
1,
#3688912
0)
#3744637
0,
#3830643
1$
#3838781
1!
#3839425
1"
#3840100
1#
#3845212
1*
#3853731
1%
#3860100
0"
#3860768
0#
#3861631
0$
#3865875
0*
#3875125
0%
#3880831
0!
#3887231
1*
#3894168
1&
#3901443
1!
#3902756
1#
#3907875
0*
#3914818
0&
#3928493
1*
#3939837
1'
#3942725
0!
#3943356
1"
#3944037
0#
#3949137
0*
#3951243
1+
#3960475
0'
#3969762
1*
#3978231
1(
#3984750
1!
#3986068
1#
#3991187
0*
#3998906
0(
#4005412
0!
#4006050
0"
#4006718
0#
#4013925
0+
#4031425
1)
#4045931
1,
#4052050
0)
#4108531
0,
#4194537
1$
#4202675
1!
#4203318
1"
#4203993
1#
#4209106
1*
#4217625
1%
#4223993
0"
#4225531
0$
#4229775
0*
#4238275
0%
#4250393
1*
#4257343
1&
#4264625
0!
#4271043
0*
#4278737
0&
#4286631
1"
#4287312
0#
#4292406
1*
#4303743
1'
#4306625
1!
#4307275
0"
#4313043
0*
#4315150
1+
#4324381
0'
#4327900
1"
#4333675
1*
#4341393
1(
#4349231
1#
#4354350
0*
#4362068
0(
#4368575
0!
#4369212
0"
#4369881
0#
#4377087
0+
#4395387
1)
#4409893
1,
#4416012
0)
#4471737
0,
#4557743
1$
#4565881
1!
#4566525
1"
#4567200
1#
#4572312
1*
#4580831
1%
#4589500
0$
#4593743
0*
#4602250
0%
#4607956
0!
#4614368
1*
#4621318
1&
#4628593
1!
#4629243
0"
#4635025
0*
#4641968
0&
#4649231
0!
#4649862
1"
#4655643
1*
#4666987
1'
#4669868
1!
#4671193
0#
#4676293
0*
#4678400
1+
#4688393
0'
#4691275
0!
#4697681
1*
#4705393
1(
#4711912
1!
#4713231
1#
#4718350
0*
#4726068
0(
#4732575
0!
#4733212
0"
#4733881
0#
#4741087
0+
#4758587
1)
#4773093
1,
#4779212
0)
#4835693
0,
#4921700
1$
#4929837
1!
#4930481
1"
#4931156
1#
#4936268
1*
#4944787
1%
#4951156
0"
#4952693
0$
#4956937
0*
#4965437
0%
#4977556
1*
#4984506
1&
#4992425
1"
#4998975
0*
#5005925
0&
#5014506
0#
#5019600
1*
#5030943
1'
#5033831
0!
#5035137
1#
#5040250
0*
#5042356
1+
#5051593
0'
#5054468
1!
#5055793
0#
#5060887
1*
#5068606
1(
#5076443
1#
#5081562
0*
#5089281
0(
#5095787
0!
#5097181
0"
#5097850
0#
#5105056
0+
#5122556
1)
#5137062
1,
#5143181
0)
#5199662
0,
#5284912
1$
#5293050
1!
#5293693
1"
#5294368
1#
#5299481
1*
#5308756
1%
#5316668
0$
#5320912
0*
#5329418
0%
#5335768
0"
#5341537
1*
#5348487
1&
#5362193
0*
#5369137
0&
#5377037
1"
#5382818
1*
#5394168
1'
#5397056
0!
#5398368
0#
#5403468
0*
#5406331
1+
#5415562
0'
#5419750
1#
#5424856
1*
#5432575
1(
#5439093
1!
#5445531
0*
#5453250
0(
#5459756
0!
#5460393
0"
#5461062
0#
#5468268
0+
#5485768
1)
#5500275
1,
#5507150
0)
#5562875
0,
#5648881
1$
#5657018
1!
#5657662
1"
#5658337
1#
#5663450
1*
#5671968
1%
#5678337
0"
#5679875
0$
#5684118
0*
#5692618
0%
#5698325
0!
#5704731
1*
#5712431
1&
#5719706
1!
#5726137
0*
#5733081
0&
#5740343
0!
#5746750
1*
#5758087
1'
#5761606
1"
#5762287
0#
#5767387
0*
#5769493
1+
#5778725
0'
#5788012
1*
#5795725
1(
#5802243
1!
#5803562
1#
#5808681
0*
#5817156
0(
#5823662
0!
#5824300
0"
#5824968
0#
#5832175
0+
#5849675
1)
#5864181
1,
#5870300
0)
#5926781
0,
#6012031
1$
#6020925
1!
#6021568
1"
#6022243
1#
#6027356
1*
#6035875
1%
#6042243
0"
#6043781
0$
#6048025
0*
#6056525
0%
#6062231
0!
#6068637
1*
#6075581
1&
#6083493
1"
#6089287
0*
#6096231
0&
#6109906
1*
#6122006
1'
#6124887
1!
#6131318
0*
#6133425
1+
#6142668
0'
#6146868
0#
#6151962
1*
#6159681
1(
#6167518
1#
#6172637
0*
#6180356
0(
#6186862
0!
#6187500
0"
#6188168
0#
#6195375
0+
#6212875
1)
#6228137
1,
#6234256
0)
#6289981
0,
#6375987
1$
#6384125
1!
#6384768
1"
#6385443
1#
#6390556
1*
#6399075
1%
#6405443
0"
#6406981
0$
#6411225
0*
#6419725
0%
#6425431
0!
#6432593
1*
#6439537
1&
#6448125
0#
#6453231
0*
#6460162
0&
#6468056
1"
#6473831
1*
#6485168
1'
#6488050
1!
#6494475
0*
#6496581
1+
#6505818
0'
#6508700
0!
#6510006
1#
#6515112
1*
#6522831
1(
#6529350
1!
#6536543
0*
#6544262
0(
#6550768
0!
#6551406
0"
#6552075
0#
#6559281
0+
#6576781
1)
#6591287
1,
#6597406
0)
#6653887
0,
#6739893
1$
#6748031
1!
#6748675
1"
#6749350
1#
#6754462
1*
#6762981
1%
#6769350
0"
#6770018
0#
#6770881
0$
#6775125
0*
#6783618
0%
#6790631
1#
#6795737
1*
#6802687
1&
#6809968
0!
#6816387
0*
#6823325
0&
#6831218
1"
#6837000
1*
#6849100
1'
#6853300
0#
#6858400
0*
#6860506
1+
#6869737
0'
#6873925
1#
#6879031
1*
#6886750
1(
#6893268
1!
#6899706
0*
#6907425
0(
#6913931
0!
#6914568
0"
#6915237
0#
#6922443
0+
#6940700
1)
#6955206
1,
#6961325
0)
#7017050
0,
#7103056
1$
#7111193
1!
#7111837
1"
#7112512
1#
#7117625
1*
#7126143
1%
#7132512
0"
#7134050
0$
#7138293
0*
#7147550
0%
#7155431
1$
#7159675
1*
#7166631
1&
#7173912
0!
#7174543
1"
#7176093
0$
#7180337
0*
#7186406
1$
#7187287
0&
#7194543
1!
#7195868
0#
#7200968
1*
#7212318
1'
#7217387
0$
#7221625
0*
#7223731
1+
#7227706
1$
#7232975
0'
#7242275
1*
#7250756
1(
#7258593
1#
#7259468
0$
#7263712
0*
#7271431
0(
#7277937
0!
#7278575
0"
#7279243
0#
#7280100
1$
#7286456
0+
#7303968
1)
#7311031
0$
#7318475
1,
#7324593
0)
#7381075
0,
